^C:\USERS\NEEMA\DESKTOP\CHEEKYSPANKERS\CHEEKYSPANKERS\MAIN.CPP|C:\USERS\NEEMA\DESKTOP\CHEEKYSPANKERS\CHEEKYSPANKERS\SLIMMEM.CPP
C:\USERS\NEEMA\DESKTOP\CHEEKYSPANKERS\CHEEKYSPANKERS\DEBUG\VC141.PDB
C:\USERS\NEEMA\DESKTOP\CHEEKYSPANKERS\CHEEKYSPANKERS\DEBUG\VC141.IDB
C:\USERS\NEEMA\DESKTOP\CHEEKYSPANKERS\CHEEKYSPANKERS\DEBUG\SLIMMEM.OBJ
C:\USERS\NEEMA\DESKTOP\CHEEKYSPANKERS\CHEEKYSPANKERS\DEBUG\MAIN.OBJ
^C:\USERS\NEEMA\DESKTOP\CHEEKYSPANKERS\CHEEKYSPANKERS\SLIMMEM.CPP
C:\USERS\NEEMA\DESKTOP\CHEEKYSPANKERS\CHEEKYSPANKERS\DEBUG\VC141.PDB
^C:\USERS\NEEMA\DESKTOP\CHEEKYSPANKERS\CHEEKYSPANKERS\MAIN.CPP
C:\USERS\NEEMA\DESKTOP\CHEEKYSPANKERS\CHEEKYSPANKERS\DEBUG\VC141.PDB
C:\USERS\NEEMA\DESKTOP\CHEEKYSPANKERS\CHEEKYSPANKERS\DEBUG\VC141.IDB
C:\USERS\NEEMA\DESKTOP\CHEEKYSPANKERS\CHEEKYSPANKERS\DEBUG\MAIN.OBJ
